Analysis
…
Here is the summarized data.

setwd("/Users/yuanyulu/nber_mortality_process_2024")
data <- read.csv("data/mort1970.csv")

summary_data <- data %>%
  select(ucod, monthdth, sex, age, countyoc) %>%
  rename(cause = ucod, fips = countyoc) %>%
  group_by(cause, monthdth, sex, age, fips) %>%
  summarise(deaths = n(), .groups = 'drop') %>%
  mutate(year = 1970)
print(summary_data)

# A tibble: 1,687,747 × 7
   cause monthdth   sex   age  fips deaths  year
   <int>    <int> <int> <int> <int>  <int> <dbl>
 1     1        3     1    32 33029      1  1970
 2     1        4     2    59 37019      1  1970
 3     1        6     1    69  1048      1  1970
 4     1        7     1    26 14016      1  1970
 5     1        8     2    85 43013      1  1970
 6     1       12     2     5 43079      1  1970
 7    10        1     1    49  5015      1  1970
 8    10        1     1    56 39040      1  1970
 9    10        1     1    62 49024      1  1970
10    10        1     1    63 36018      1  1970
# ℹ 1,687,737 more rows
…
  group_by(cause, monthdth, sex, age, fips) %>%
  summarise(
    deaths = n(),
    matching_deaths = sum(match, na.rm = TRUE),
    .groups = 'drop'
  ) %>%
  mutate(
    unmatching_deaths = deaths - matching_deaths,
    unmatching_ratio = unmatching_deaths / deaths,
    year = 1970
  ) %>%
  select(-matching_deaths)
print(compare_data)

# A tibble: 1,687,747 × 9
   cause monthdth   sex   age  fips deaths unmatching_deaths unmatching_ratio
   <int>    <int> <int> <int> <int>  <int>             <int>            <dbl>
 1     1        3     1    32 33029      1                 0                0
 2     1        4     2    59 37019      1                 0                0
 3     1        6     1    69  1048      1                 1                1
 4     1        7     1    26 14016      1                 0                0
 5     1        8     2    85 43013      1                 0                0
 6     1       12     2     5 43079      1                 0                0
 7    10        1     1    49  5015      1                 1                1
 8    10        1     1    56 39040      1                 1                1
 9    10        1     1    62 49024      1                 0                0
10    10        1     1    63 36018      1                 1                1
# ℹ 1,687,737 more rows
# ℹ 1 more variable: year <dbl>
…
